main.c:93:5:main	48	static
main.c:178:6:SystemClock_Config	136	static
main.c:230:13:MX_CRC_Init	8	static
main.c:256:13:MX_DMA2D_Init	8	static
main.c:293:13:MX_I2C3_Init	8	static
main.c:339:13:MX_LTDC_Init	64	static
main.c:401:13:MX_SPI5_Init	8	static
main.c:439:13:MX_TIM1_Init	32	static
main.c:485:13:MX_USART1_UART_Init	8	static
main.c:514:13:MX_FMC_Init	40	static
main.c:565:13:MX_GPIO_Init	64	static
main.c:702:6:StartDefaultTask	16	static
main.c:723:6:HAL_TIM_PeriodElapsedCallback	16	static
main.c:740:6:Error_Handler	4	static
main.c:756:6:assert_failed	16	static
